C:\Users\m317-Terry\Desktop\企業應用程式開發\@assignment push\ea_unit05_as\mavenproject1\src\main\java\com\test\mavenproject1\java\LoadFile.java
C:\Users\m317-Terry\Desktop\企業應用程式開發\@assignment push\ea_unit05_as\mavenproject1\src\main\java\com\test\mavenproject1\ejb\Interface.java
C:\Users\m317-Terry\Desktop\企業應用程式開發\@assignment push\ea_unit05_as\mavenproject1\src\main\java\com\test\mavenproject1\cdi\Bean.java
C:\Users\m317-Terry\Desktop\企業應用程式開發\@assignment push\ea_unit05_as\mavenproject1\src\main\java\com\test\mavenproject1\ejb\Ejb.java
